{
    "content": [
        {
            "merchantId": null,
            "customerId": null,
            "nfcTagId": null,
            "terminalId": null,
            "contactMsisdn": null,
            "paymentType": "เติมเงิน",
            "status": null,
            "message": "",
            "duration": null,
            "dateFallback": null,
            "accountRefId": "1021",
            "transactionRef": "506618",
            "balanceType": 3000,
            "extSession": "51453e92-105b-40e0-814c-1121bc295109",
            "sourceRef": "Bank",
            "patternA": "140",
            "patternB": "278668662",
            "patternC": "",
            "workingAmount": 0.02,
            "workingAmountDisplay": "0.02",
            "sendingAmountExclFee": null,
            "receivedAmount": null,
            "fxRate": null,
            "totalFee": null,
            "costToSend": null,
            "balanceBefore": 4218.18,
            "balanceAfter": 4218.20,
            "balanceAfterDisplay": "4,218.20",
            "workingCurrencyUnit": "THB",
            "workingCurrencySymbol": "฿",
            "destinationCurrencyUnit": null,
            "destinationCurrencySymbol": null,
            "txType": "เติมเงิน",
            "transactionTypeCode": "CR",
            "billableEvent": 318,
            "billableEvent2": 0,
            "reversalOriginalTransactionId": 0,
            "transactionId": "506619",
            "utransactionId": null,
            "paymentTrailId": null,
            "originCode": "",
            "destinationCode": "",
            "creditName": null,
            "debitName": "Default Top Up",
            "date": 1713928938340,
            "receiptAdditionalDetails": null,
            "salesId": 0,
            "latitude": 0.0,
            "longitude": 0.0,
            "productId": null,
            "billerId": null,
            "pylId": null,
            "paymentModeId": null,
            "sourceAcctId": 140,
            "relatedAcctId": 1021,
            "bplId": null,
            "transactionCCNumber": null,
            "externalAccount": null,
            "externalReference": "51453e92-105b-40e0-814c-1121bc295109",
            "additionalDetails": null
        },
        {
            "merchantId": null,
            "customerId": null,
            "nfcTagId": null,
            "terminalId": null,
            "contactMsisdn": null,
            "paymentType": "จ่ายบิล",
            "status": null,
            "message": "ค่าโดยสารรถไฟฟ้า",
            "duration": null,
            "dateFallback": null,
            "accountRefId": "1021",
            "transactionRef": "506501",
            "balanceType": 3000,
            "extSession": "1713926207687",
            "sourceRef": null,
            "patternA": "278668662",
            "patternB": "1041",
            "patternC": null,
            "workingAmount": 0.01,
            "workingAmountDisplay": "0.01",
            "sendingAmountExclFee": null,
            "receivedAmount": null,
            "fxRate": null,
            "totalFee": null,
            "costToSend": null,
            "balanceBefore": 4218.19,
            "balanceAfter": 4218.18,
            "balanceAfterDisplay": "4,218.18",
            "workingCurrencyUnit": "THB",
            "workingCurrencySymbol": "฿",
            "destinationCurrencyUnit": null,
            "destinationCurrencySymbol": null,
            "txType": "จ่ายบิล",
            "transactionTypeCode": "DR",
            "billableEvent": 343,
            "billableEvent2": 0,
            "reversalOriginalTransactionId": 0,
            "transactionId": "506500",
            "utransactionId": null,
            "paymentTrailId": null,
            "originCode": "VFMM",
            "destinationCode": "RABBITBILL",
            "creditName": "Electric Train",
            "debitName": null,
            "date": 1713926207607,
            "receiptAdditionalDetails": null,
            "salesId": 0,
            "latitude": -36.90544236136767,
            "longitude": 174.7164117816925,
            "productId": "et",
            "billerId": "etb",
            "pylId": 51721,
            "paymentModeId": null,
            "sourceAcctId": 1021,
            "relatedAcctId": 1041,
            "bplId": 51721,
            "transactionCCNumber": null,
            "externalAccount": null,
            "externalReference": "ce325719-18ae-4404-a150-94520d90f6a3",
            "additionalDetails": {
                "Gate Number": "1",
                "productId": "et",
                "billerIdentifier": "etb",
                "billerType": "",
                "payerName": "Joe+Bloggs",
                "merchantAccountId": "null",
                "billerName": "Electric+Train",
                "productTypeCode": "",
                "productName": "Electric+Train"
            }
        }
    ],
    "pageable": {
        "sort": [
            {
                "direction": "DESC",
                "property": "txnlid",
                "ignoreCase": false,
                "nullHandling": "NATIVE",
                "ascending": false,
                "descending": true
            }
        ],
        "offset": 0,
        "pageNumber": 0,
        "pageSize": 2,
        "paged": true,
        "unpaged": false
    },
    "totalElements": 9,
    "totalPages": 5,
    "last": false,
    "size": 2,
    "number": 0,
    "sort": [
        {
            "direction": "DESC",
            "property": "txnlid",
            "ignoreCase": false,
            "nullHandling": "NATIVE",
            "ascending": false,
            "descending": true
        }
    ],
    "numberOfElements": 2,
    "first": true,
    "empty": false
}